REPORT	COMMENT	DATE	ALARM	SITE	IP_ADDR	PHONE_NUM
MEDIDAS	61	29/04/15 15:57:32	ALA0_FTP	BOMBEO	192.168.1.222	34666666666


ELEMENT	COMMENT	HISTOFILE
ELM00000		MEDIDAS

DATE	1_PRESION (bar)	2_CAUDAL_SALIDA	
04/29/2015 15:57:00	4.375911	0.000000
04/29/2015 15:56:00	4.375326	0.000000
04/29/2015 15:55:00	4.376406	0.000000
04/29/2015 15:54:00	4.378768	0.000000
04/29/2015 15:53:00	4.378994	0.000000
04/29/2015 15:52:00	4.379149	0.000000
04/29/2015 15:51:00	4.379116	0.000000
04/29/2015 15:50:00	4.380237	0.000000
04/29/2015 15:49:00	4.379600	0.000000
04/29/2015 15:48:00	4.378766	0.000000
04/29/2015 15:47:00	4.380186	0.000000
04/29/2015 15:46:00	4.382381	0.000000
04/29/2015 15:45:00	4.381485	0.000000
04/29/2015 15:44:00	4.380961	0.000000
04/29/2015 15:43:00	4.382947	0.000000
04/29/2015 15:42:00	4.382000	0.000000
04/29/2015 15:41:00	4.383562	0.000000
04/29/2015 15:40:00	4.381811	0.000000
04/29/2015 15:39:00	4.376975	0.000000
04/29/2015 15:38:00	4.371202	0.000000
04/29/2015 15:37:00	4.361879	0.000000
04/29/2015 15:36:00	4.379072	0.000000
04/29/2015 15:35:00	4.365359	0.000000
04/29/2015 15:34:00	4.354560	0.000000
04/29/2015 15:33:00	4.370910	0.000000
04/29/2015 15:32:00	4.349736	0.000000
04/29/2015 15:31:00	4.359052	0.000000
04/29/2015 15:30:00	4.370978	0.000000
04/29/2015 15:29:00	4.376065	0.000000
04/29/2015 15:28:00	4.376824	0.000000
04/29/2015 15:27:00	4.376483	0.000000
04/29/2015 15:26:00	4.377165	0.000000
04/29/2015 15:25:00	4.374601	0.000000
04/29/2015 15:24:00	4.377865	0.000000
04/29/2015 15:23:00	4.267834	0.000000


